{
  "development": {
    "sequelize": {
      "username": "",
      "password": "",
      "database": ""
    },
    "host": "127.0.0.1",
    "port": 8080,
    "mysql": {
      "dialect": "mysql",
      "host": "localhost",
      "port": ""
    },
    "redis": {
      "secret": "",
      "name": ""
    }
  },
  "test": {
    "host": "127.0.0.1",
    "port": 8080,
    "sequelize": {
      "username": "",
      "password": "",
      "database": ""
    },
    "mysql": {
      "dialect": "mysql",
      "host": "localhost",
      "port": ""
    },
    "redis": {
      "secret": "",
      "name": ""
    }
  },
  "production": {
    "host": "127.0.0.1",
    "port": 8080,
    "sequelize": {
      "username": "",
      "password": "",
      "database": ""
    },
    "mysql": {
      "dialect": "mysql",
      "host": "localhost",
      "port": ""
    },
    "redis": {
      "secret": "",
      "name": ""
    }
  }
}
